1주차 패키지
…
문제 2

Bar plot

library("dplyr")
data7<-data6 %>% group_by(province,state) %>% dplyr::summarise(n = n()) 

## `summarise()` has grouped output by 'province'. You can override using the `.groups` argument.

data7

## # A tibble: 37 x 3
## # Groups:   province [16]
##    province state        n
##    <chr>    <chr>    <int>
##  1 강원도   deceased     3
##  2 강원도   isolated    13
##  3 강원도   released    43
##  4 경기도   isolated   768
##  5 경기도   released    57
##  6 경상남도 isolated     6
##  7 경상남도 released   123
##  8 경상북도 deceased    42
##  9 경상북도 isolated   130
## 10 경상북도 released  1068
## # ... with 27 more rows
…
